…
###The number of employees in each department in each company

```r
category <- group_by(employee1, Company_id, dept) %>%
  count() %>%
  ungroup()
arrange(category, desc(n))
```

```
## # A tibble: 70 x 3
##    Company_id dept                 n
##    <fct>      <chr>            <int>
##  1 1          customer_service  3157
##  2 1          engineer          1568
##  3 2          customer_service  1548
##  4 1          sales             1098
##  5 1          marketing         1085
##  6 1          data_science      1079
##  7 3          customer_service  1010
##  8 2          engineer           829
##  9 4          customer_service   777
## 10 5          customer_service   635
## # ... with 60 more rows
```
…
###Factors that determine the length of retention time
I calculate the retention time from the join and quit dates (only of those who quit the job). The retention is time intercal with unit of days.

```r
joindate <- as.Date(as.character(employee1$join_date), "%m/%d/%y")
quitdate <- as.Date(as.character(employee1$quit_date), "%m/%d/%y")
employee2 <- mutate(employee1, retention = as.numeric(difftime(quitdate, joindate), unit = "days")) %>%
  filter(is.na(retention) == F) %>%
  arrange(retention)
employee2
```

```
## # A tibble: 13,510 x 8
##    dept  seniority salary join_date quit_date Employee_id Company_id
##    <chr>     <dbl>  <dbl> <chr>     <chr>     <fct>       <fct>     
##  1 cust~         3  23000 10/8/12   1/18/13   158442      9         
##  2 mark~        25 211000 10/1/12   1/28/13   564823      1         
##  3 engi~         6 212000 9/16/13   1/28/14   551249      1         
##  4 cust~         9  78000 9/15/14   1/28/15   946036      7         
##  5 cust~        28  95000 9/4/12    1/18/13   42759       8         
##  6 cust~        18 127000 8/3/11    1/3/12    212530      1         
##  7 sales        29 152000 8/13/12   1/15/13   154790      6         
##  8 data~        12 168000 8/6/12    1/14/13   765161      10        
##  9 sales         8  88000 8/22/11   1/30/12   589855      7         
## 10 desi~         5 131000 8/15/11   1/30/12   888499      1         
## # ... with 13,500 more rows, and 1 more variable: retention <dbl>
```
…
