…
```r
agefrauds <-group_by(Fraud, age, class) %>%
  count()%>%
  ungroup() %>%
  mutate(class = as.factor(class)) %>%
  filter(class == 1)
arrange(agefrauds, desc(n))
```

```
## # A tibble: 50 x 3
##      age class     n
##    <dbl> <fct> <int>
##  1    36 1       721
##  2    32 1       719
##  3    33 1       648
##  4    31 1       615
##  5    28 1       611
##  6    35 1       607
##  7    30 1       584
##  8    29 1       572
##  9    34 1       547
## 10    39 1       504
## # ... with 40 more rows
```
36.
if we just want to find which sex-age group has the highest frauds: 

```r
frauds <- filter(agesex, class == 1)
arrange(frauds, desc(n))
```

```
## # A tibble: 94 x 4
##    sex     age class     n
##    <chr> <dbl> <fct> <int>
##  1 M        32 1       459
##  2 M        31 1       418
##  3 M        36 1       402
##  4 M        30 1       358
##  5 M        27 1       342
##  6 M        37 1       335
##  7 M        33 1       332
##  8 M        29 1       330
##  9 F        36 1       319
## 10 M        28 1       319
## # ... with 84 more rows
```
…
```r
fraudss <- filter(val, class == 1)
arrange(fraudss, desc(n))
```

```
## # A tibble: 98 x 3
##    purchase_value class     n
##             <dbl> <fct> <int>
##  1             32 1       375
##  2             19 1       352
##  3             28 1       332
##  4             23 1       323
##  5             17 1       315
##  6             27 1       303
##  7             40 1       301
##  8             42 1       298
##  9             33 1       291
## 10             20 1       289
## # ... with 88 more rows
```
…
