…
```
##       Min.    1st Qu.     Median       Mean    3rd Qu.       Max. 
## -0.2037817  0.0000000  0.0000000  0.0009183  0.0000000  0.2129642
```


```r
data1
```

```
## # A tibble: 768 x 5
##    Relative_Compactn~ Wall_Area Orientation Glazing_Area Glazing_Area_Dist~
##                 <dbl>     <dbl>       <dbl>        <dbl>              <dbl>
##  1               0.98      294            2            0                  0
##  2               0.98      294            3            0                  0
##  3               0.98      294            4            0                  0
##  4               0.98      294            5            0                  0
##  5               0.9       318.           2            0                  0
##  6               0.9       318.           3            0                  0
##  7               0.9       318.           4            0                  0
##  8               0.9       318.           5            0                  0
##  9               0.86      294            2            0                  0
## 10               0.86      294            3            0                  0
## # ... with 758 more rows
```
…
```
##    Min. 1st Qu.  Median    Mean 3rd Qu.    Max.    NA's 
## 0.00000 0.00000 0.00000 0.03549 0.00000 0.21296      15
```


```r
data4 
```

```
## # A tibble: 768 x 7
##    Relative_Compac~ Wall_Area Orientation Glazing_Area Glazing_Area_Di~
##               <dbl>     <dbl>       <dbl>        <dbl>            <dbl>
##  1             0.98      294            2            0                0
##  2             0.98      294            3            0                0
##  3             0.98      294            4            0                0
##  4             0.98      294            5            0                0
##  5             0.9       318.           2            0                0
##  6             0.9       318.           3            0                0
##  7             0.9       318.           4            0                0
##  8             0.9       318.           5            0                0
##  9             0.86      294            2            0                0
## 10             0.86      294            3            0                0
## # ... with 758 more rows, and 2 more variables: Volume <dbl>,
## #   Exposed_Area <dbl>
```
…
##Classification

As noticed in the previous sections (exploration), that x3-x8 only have a few values, so we can try classfication methods. 
According to caret, tree-type model works with those variables.

Starting again with original data


```r
data
```

```
## # A tibble: 768 x 10
##    Relative_Compac~ Surface_Area Wall_Area Roof_Area Overall_Height
##               <dbl>        <dbl>     <dbl>     <dbl>          <dbl>
##  1             0.98         514.      294       110.              7
##  2             0.98         514.      294       110.              7
##  3             0.98         514.      294       110.              7
##  4             0.98         514.      294       110.              7
##  5             0.9          564.      318.      122.              7
##  6             0.9          564.      318.      122.              7
##  7             0.9          564.      318.      122.              7
##  8             0.9          564.      318.      122.              7
##  9             0.86         588       294       147               7
## 10             0.86         588       294       147               7
## # ... with 758 more rows, and 5 more variables: Orientation <dbl>,
## #   Glazing_Area <dbl>, Glazing_Area_Distribution <dbl>,
## #   Heating_Load <dbl>, Cooling_Load <dbl>
```
…
