HW191019
…
Q1

who %>%
  filter(new_sp_m014 == 0) %>%
  nrow()

## [1] 862

There is 0 cases. So missing value (NA) probably doesnt mean 0 case occurs for that category; it means WHO dont have the data. Thus its reasonable to ignore it.

2

who

## # A tibble: 7,240 x 60
##    country iso2  iso3   year new_sp_m014 new_sp_m1524 new_sp_m2534
##    <chr>   <chr> <chr> <int>       <int>        <int>        <int>
##  1 Afghan~ AF    AFG    1980          NA           NA           NA
##  2 Afghan~ AF    AFG    1981          NA           NA           NA
##  3 Afghan~ AF    AFG    1982          NA           NA           NA
##  4 Afghan~ AF    AFG    1983          NA           NA           NA
##  5 Afghan~ AF    AFG    1984          NA           NA           NA
##  6 Afghan~ AF    AFG    1985          NA           NA           NA
##  7 Afghan~ AF    AFG    1986          NA           NA           NA
##  8 Afghan~ AF    AFG    1987          NA           NA           NA
##  9 Afghan~ AF    AFG    1988          NA           NA           NA
## 10 Afghan~ AF    AFG    1989          NA           NA           NA
## # ... with 7,230 more rows, and 53 more variables: new_sp_m3544 <int>,
## #   new_sp_m4554 <int>, new_sp_m5564 <int>, new_sp_m65 <int>,
## #   new_sp_f014 <int>, new_sp_f1524 <int>, new_sp_f2534 <int>,
## #   new_sp_f3544 <int>, new_sp_f4554 <int>, new_sp_f5564 <int>,
## #   new_sp_f65 <int>, new_sn_m014 <int>, new_sn_m1524 <int>,
## #   new_sn_m2534 <int>, new_sn_m3544 <int>, new_sn_m4554 <int>,
## #   new_sn_m5564 <int>, new_sn_m65 <int>, new_sn_f014 <int>,
## #   new_sn_f1524 <int>, new_sn_f2534 <int>, new_sn_f3544 <int>,
## #   new_sn_f4554 <int>, new_sn_f5564 <int>, new_sn_f65 <int>,
…
who1 <- who %>%
  gather(new_sp_m014:newrel_f65, key = "key", value = "cases",
na.rm = TRUE) %>%
  separate(key, c("new", "type", "sexage"), sep = "_") %>%
  select(-new) %>%
  separate("sexage", c("sex", "age"), sep = 1)

## Warning: Expected 3 pieces. Missing pieces filled with `NA` in 2580 rows
## [73467, 73468, 73469, 73470, 73471, 73472, 73473, 73474, 73475, 73476,
## 73477, 73478, 73479, 73480, 73481, 73482, 73483, 73484, 73485, 73486, ...].

who1

## # A tibble: 76,046 x 8
##    country     iso2  iso3   year type  sex   age   cases
##    <chr>       <chr> <chr> <int> <chr> <chr> <chr> <int>
##  1 Afghanistan AF    AFG    1997 sp    m     014       0
##  2 Afghanistan AF    AFG    1998 sp    m     014      30
##  3 Afghanistan AF    AFG    1999 sp    m     014       8
##  4 Afghanistan AF    AFG    2000 sp    m     014      52
##  5 Afghanistan AF    AFG    2001 sp    m     014     129
##  6 Afghanistan AF    AFG    2002 sp    m     014      90
##  7 Afghanistan AF    AFG    2003 sp    m     014     127
##  8 Afghanistan AF    AFG    2004 sp    m     014     139
##  9 Afghanistan AF    AFG    2005 sp    m     014     151
## 10 Afghanistan AF    AFG    2006 sp    m     014     193
## # ... with 76,036 more rows
…
## Warning: Factor `teamID` contains implicit NA, consider using
## `forcats::fct_explicit_na`

## # A tibble: 0 x 22
## # Groups:   playerID, teamID, yearID, stint [1]
## # ... with 22 variables: playerID <chr>, yearID <int>, stint <int>,
## #   teamID <fct>, lgID <fct>, G <int>, AB <int>, R <int>, H <int>,
## #   X2B <int>, X3B <int>, HR <int>, RBI <int>, SB <int>, CS <int>,
## #   BB <int>, SO <int>, IBB <int>, HBP <int>, SH <int>, SF <int>,
## #   GIDP <int>

names <- babynames::babynames
names

## # A tibble: 1,924,665 x 5
##     year sex   name          n   prop
##    <dbl> <chr> <chr>     <int>  <dbl>
##  1  1880 F     Mary       7065 0.0724
##  2  1880 F     Anna       2604 0.0267
##  3  1880 F     Emma       2003 0.0205
##  4  1880 F     Elizabeth  1939 0.0199
##  5  1880 F     Minnie     1746 0.0179
##  6  1880 F     Margaret   1578 0.0162
##  7  1880 F     Ida        1472 0.0151
##  8  1880 F     Alice      1414 0.0145
##  9  1880 F     Bertha     1320 0.0135
## 10  1880 F     Sarah      1288 0.0132
## # ... with 1,924,655 more rows

names %>%
  group_by(year, name, sex) %>%
  count() %>%
  filter(n > 1) %>%
  nrow()

## [1] 0

atmos <- nasaweather::atmos
atmos

## # A tibble: 41,472 x 11
##      lat  long  year month surftemp  temp pressure ozone cloudlow cloudmid
##    <dbl> <dbl> <int> <int>    <dbl> <dbl>    <dbl> <dbl>    <dbl>    <dbl>
##  1  36.2 -114.  1995     1     273.  272.      835   304      7.5     34.5
##  2  33.7 -114.  1995     1     280.  282.      940   304     11.5     32.5
##  3  31.2 -114.  1995     1     285.  285.      960   298     16.5     26  
##  4  28.7 -114.  1995     1     289.  291.      990   276     20.5     14.5
##  5  26.2 -114.  1995     1     292.  293.     1000   274     26       10.5
##  6  23.7 -114.  1995     1     294.  294.     1000   264     30        9.5
##  7  21.2 -114.  1995     1     295   295.     1000   258     29.5     11  
##  8  18.7 -114.  1995     1     298.  297.     1000   252     26.5     17.5
##  9  16.2 -114.  1995     1     300.  298.     1000   250     27.5     18.5
## 10  13.7 -114.  1995     1     300.  299.     1000   250     26       16.5
## # ... with 41,462 more rows, and 1 more variable: cloudhigh <dbl>
