…
```
## Joining, by = "word"
```

```r
alice_tidy
```

```
## # A tibble: 7,619 x 4
##    gutenberg_id linenumber chapter word      
##           <int>      <int>   <int> <chr>     
##  1           11          1       0 alice's   
##  2           11          1       0 adventures
##  3           11          1       0 wonderland
##  4           11          3       0 lewis     
##  5           11          3       0 carroll   
##  6           11          5       0 millennium
##  7           11          5       0 fulcrum   
##  8           11          5       0 edition   
##  9           11          5       0 3.0       
## 10           11         10       1 chapter   
## # ... with 7,609 more rows
```
…
```
## Joining, by = "word"
```

```r
alice_sentiment1
```

```
## # A tibble: 118 x 5
##    chapter index negative positive sentiment
##    <fct>   <dbl>    <dbl>    <dbl>     <dbl>
##  1 1           0        3        4         1
##  2 1           1       13        3       -10
##  3 1           2        8        4        -4
##  4 1           3        5        3        -2
##  5 1           4        9        9         0
##  6 1           5        5        5         0
##  7 1           6       13        4        -9
##  8 2           7        4        0        -4
##  9 2           8       14        4       -10
## 10 2           9        4        3        -1
## # ... with 108 more rows
```
…
```
## Joining, by = "chapter"
```

```r
alice_chapter
```

```
## # A tibble: 7,370 x 4
##    chapter word      n total
##    <fct>   <chr> <int> <int>
##  1 11      the     183  1905
##  2 8       the     168  2501
##  3 12      the     168  2137
##  4 7       the     158  2317
##  5 10      the     158  2056
##  6 6       the     150  2615
##  7 9       the     144  2300
##  8 4       the     128  2669
##  9 4       and     107  2669
## 10 3       the     101  1713
## # ... with 7,360 more rows
```
…
###Bind tf-idf function

Here we try to find the important words while giving less weight to commonly used words and bigger weight to rare words.


```r
alice_chapter <- alice_chapter %>%
  bind_tf_idf(word, chapter, n) %>%
  arrange(desc(tf_idf))
alice_chapter
```

```
## # A tibble: 7,370 x 7
##    chapter word            n total      tf   idf tf_idf
##    <fct>   <chr>       <int> <int>   <dbl> <dbl>  <dbl>
##  1 7       dormouse       26  2317 0.0112   1.79 0.0201
##  2 10      turtle         29  2056 0.0141   1.39 0.0196
##  3 7       hatter         32  2317 0.0138   1.39 0.0191
##  4 10      mock           28  2056 0.0136   1.39 0.0189
##  5 10      gryphon        31  2056 0.0151   1.10 0.0166
##  6 9       turtle         27  2300 0.0117   1.39 0.0163
##  7 5       caterpillar    25  2178 0.0115   1.39 0.0159
##  8 10      dance          13  2056 0.00632  2.48 0.0157
##  9 9       mock           26  2300 0.0113   1.39 0.0157
## 10 11      hatter         21  1905 0.0110   1.39 0.0153
## # ... with 7,360 more rows
```
…
